{
  "/verbs": {
    "get": {
      "x-mojo-to": "Org::KohaCommunity::Jump::JumpController#verbs",
      "operationId": "jump_get_verbs",
      "tags": ["jump", "verbs"],
      "parameters": [{
        "name": "term",
        "in": "query",
        "description": "a term",
        "required": false,
        "type": "string"
      },
      { "name": "_", "in": "query", "description": "pollution from autocomplete", "required": false, "type": "string" }
      ],
      "produces": [
        "application/json"
      ],
      "responses": {
        "200": {
          "description": "List of available verbs",
          "schema": {
              "type": "array"
          }
        },
        "404": {
          "description": "An error occured",
          "schema": {
              "type": "object",
                "properties": {
                  "error": {
                    "description": "An explanation for the error",
                    "type": "string"
                  }
                }
          }
        }
      },
      "x-koha-authorization": {
        "permissions": {
          "borrowers": "1"
        }
      }
    }
  },
  "/object_classes": {
    "get": {
      "x-mojo-to": "Org::KohaCommunity::Jump::JumpController#object_classes",
      "operationId": "jump_get_object_classes",
      "tags": ["jump", "object_classes"],
      "parameters": [{
        "name": "term",
        "in": "query",
        "description": "a term",
        "required": false,
        "type": "string"
      },
      { "name": "_", "in": "query", "description": "pollution from autocomplete", "required": false, "type": "string" }
      ],

      "produces": [
        "application/json"
      ],
      "responses": {
        "200": {
          "description": "A list of available object classes",
          "schema": {
              "type": "array"
          }
        },
        "404": {
          "description": "An error occured",
          "schema": {
              "type": "object",
                "properties": {
                  "error": {
                    "description": "An explanation for the error",
                    "type": "string"
                  }
                }
          }
        }
      },
      "x-koha-authorization": {
        "permissions": {
          "borrowers": "1"
        }
      }
    }
  },
  "/objects": {
    "get": {
      "x-mojo-to": "Org::KohaCommunity::Jump::JumpController#objects",
      "operationId": "jump_get_objects",
      "tags": ["jump", "objects"],
      "parameters": [{
        "name": "object_class",
        "in": "query",
        "description": "an object class",
        "required": true,
        "type": "string"
      },{
        "name": "term",
        "in": "query",
        "description": "a term",
        "required": false,
        "type": "string"
      },
      { "name": "_", "in": "query", "description": "pollution from autocomplete", "required": false, "type": "string" }
      ],

      "produces": [
        "application/json"
      ],
      "responses": {
        "200": {
          "description": "A list of available objects",
          "schema": {
              "type": "array"
          }
        },
        "404": {
          "description": "An error occured",
          "schema": {
              "type": "object",
                "properties": {
                  "error": {
                    "description": "An explanation for the error",
                    "type": "string"
                  }
                }
          }
        }
      },
      "x-koha-authorization": {
        "permissions": {
          "borrowers": "1"
        }
      }
    }
  },
  "/build": {
    "post": {
      "x-mojo-to": "Org::KohaCommunity::Jump::JumpController#build",
      "operationId": "jump_build",
      "tags": ["jump", "build"],
      "parameters": [{
        "name": "body",
        "in": "body",
        "description": "A JSON object containing informations about the object to build",
        "required": true,
        "schema": {
          "type": "object",
          "properties": {
            "object_class": {
              "description": "The object class of the object to create",
              "type": "string"
            }
          }
        }
      }
      ],
      "produces": [
        "application/json"
      ],
      "responses": {
        "200": {
          "description": "Return an object",
          "schema": {
              "type": "string"
          }
        },
        "404": {
          "description": "An error occured",
          "schema": {
              "type": "object",
                "properties": {
                  "error": {
                    "description": "An explanation for the error",
                    "type": "string"
                  }
                }
          }
        }
      },
      "x-koha-authorization": {
        "permissions": {
          "borrowers": "1"
        }
      }
    }
  },
  "/attributes": {
    "get": {
      "x-mojo-to": "Org::KohaCommunity::Jump::JumpController#attributes",
      "operationId": "jump_attributes",
      "tags": ["jump", "attributes"],
      "parameters": [{
        "name": "object_class",
        "in": "query",
        "description": "an object class",
        "required": true,
        "type": "string"
      },{
        "name": "term",
        "in": "query",
        "description": "a term",
        "required": false,
        "type": "string"
      },
      { "name": "_", "in": "query", "description": "pollution from autocomplete", "required": false, "type": "string" }
      ],
      "produces": [
        "application/json"
      ],
      "responses": {
        "200": {
          "description": "A list of available attributes",
          "schema": {
              "type": "array"
          }
        },
        "404": {
          "description": "An error occured",
          "schema": {
              "type": "object",
                "properties": {
                  "error": {
                    "description": "An explanation for the error",
                    "type": "string"
                  }
                }
          }
        }
      },
      "x-koha-authorization": {
        "permissions": {
          "borrowers": "1"
        }
      }
    }
  }
}
